Description	Partname	Comment	LT_ID	Designator	Footprint	Center-X(mm)	Center-Y(mm)	Rotation

Cer. capacitor	CC0603JRNPO9BN471	470pF	5630003000	C13	CHIPC_0603_WAVE	138.15	8.525	90
Cer. capacitor	CC0603JRNPO9BN471	470pF	5630003000	C15	CHIPC_0603_WAVE	140.175	5.45	90
Cer. capacitor	CC0603JRNPO9BN471	470pF	5630003000	C7	CHIPC_0603_WAVE	96	4.6	90
Cer. capacitor	CC0603KRX7R7BB105	1uF	5630001560	C4	CHIPC_0603_WAVE	115.2	14.675	270
Cer. capacitor	CC0603ZRY5V8BB224	220nF	5630001550	C3	CHIPC_0603_WAVE	112.7	3.6	90
Cer. capacitor	CC0603ZRY5V8BB224	220nF	5630001550	C5	CHIPC_0603_WAVE	113.25	14.675	90
Cer. capacitor	CC0805JRNPO9BN330	33pF	5630003080	C14	CHIPC_0805_WAVE	142.475	5.65	90
Cer. capacitor	CC0805JRNPO9BN330	33pF	5630003080	C17	CHIPC_0805_WAVE	149.175	7.25	90
Cer. capacitor	CC0805KRX7R9BB103	10nF	5630001540	C1	CHIPC_0805_WAVE	105	3.8	90
Cer. capacitor	CC0805KRX7R9BB103	10nF	5630001540	C19	CHIPC_0805_WAVE	140.025	13.979	90
Cer. capacitor	CC0805KRX7R9BB103	10nF	5630001540	C8	CHIPC_0805_WAVE	115.7	20.363	270
Cer. capacitor	CC0805KRX7R9BB103	10nF	5630001540	C9	CHIPC_0805_WAVE	113.2	20.363	270
Cer. capacitor	CC1206KKX7RBBB103	10nF	5630002020	C12	CHIPC_1206_WAVE	129.9	14.7	270
Cer. capacitor	CC1206KKX7RBBB103	10nF	5630002020	C22	CHIPC_1206_WAVE	220.2	21.91	90
Cer. capacitor	CC1206KKX7RBBB103	10nF	5630002020	C25	CHIPC_1206_WAVE	238.1	21.9	90
Cer. capacitor	CL31A106KAHNNNE	10uF	5630002480	C16	CHIPC_1206_WAVE	154.375	5.65	90
Cer. capacitor	GRM31BR73A222KW01L	2200pF	5630003400	C20	CHIPC_1206_WAVE	174.3	21.9	270
Fiducial mark		Fiducial		FID1	FID_1mm	6.87	21.425	90
Fiducial mark		Fiducial		FID2	FID_1mm	243.126	14.825	90
Fiducial mark		Fiducial		FID3	FID_1mm	219.725	6.55	90
Power Inductor	MPB252012T-4R7M-NA2	4.7uH 1.0A	5630004350	L2	MPB252012T	229.448	4.45	270
Power Inductor	MPB252012T-4R7M-NA2	4.7uH 1.0A	5630004350	L3	MPB252012T	229.474	23.063	270
Power rectifier	ES3J	ES3J	5630003240	VD9	SMC_WAVE	214.9	11.645	180
PSR Controller	NCL30082B2DR2G	NCL30082B2DR2G	5630003320	DA1	SOIC-8_WAVE	144.475	11.85	90
Rectifier diode	S1M	S1M	5630001820	VD10	SMA_wave	62.2	20.5	90
Rectifier diode	S1M	S1M	5630001820	VD11	SMA_wave	44.875	14.45	270
Rectifier diode	S1M	S1M	5630001820	VD12	SMA_wave	62.2	12.9	270
Rectifier diode	S1M	S1M	5630001820	VD13	SMA_wave	62.2	5.4	270
Rectifier diode	S1M	S1M	5630001820	VD7	SMA_wave	184.3	18.1	270
Resistor 0603	RC0603FR-071K2L	1.2K	5630002900	R37	CHIPR_0603_WAVE	151.375	5.35	90
Resistor 0603	RC0603JR-0711KL	11K	5630002880	R26	CHIPR_0603_WAVE	140.075	10.45	90
Resistor 0603	RC0603JR-0713KL	13K	5630001630	R11	CHIPR_0603_WAVE	127.57	5.07	90
Resistor 0603	RC0603JR-0713KL	13K	5630001630	R7	CHIPR_0603_WAVE	107.2	4.1	90
Resistor 0603	RC0603JR-071K2L	1.2K	5630002900	R31	CHIPR_0603_WAVE	148.975	13.75	270
Resistor 0603	RC0603JR-0733KL	33K	5630002720	R15	CHIPR_0603_WAVE	119.6	14.4	270
Resistor 0603	RC0603JR-0733KL	33K	5630002720	R19	CHIPR_0603_WAVE	82.2	12	270
Resistor 0603	RC0603JR-0733KL	33K	5630002720	R27	CHIPR_0603_WAVE	146.575	6.05	90
Resistor 0603	RC0603JR-0733KL	33K	5630002720	R3	CHIPR_0603_WAVE	102.8	4.1	270
Resistor 0603	RC0603JR-0733KL	33K	5630002720	R41	CHIPR_0603_WAVE	163	7.95	270
Resistor 0603	RC0603JR-078K2L	8.2K	5630003100	R10	CHIPR_0603_WAVE	111.25	16.11	270
Resistor 0603	RC0603JR-078K2L	8.2K	5630003100	R28	CHIPR_0603_WAVE	144.675	6.05	270
Resistor 0603	RC0603JR-07910RL	910R	5630001670	R13	CHIPR_0603_WAVE	93.5	4.6	90
Resistor 0805	RC0805JR-07200RL	200R	5630001030	R14	CHIPR_0805_WAVE	117.4	14.4	270
Resistor 0805	RC0805JR-0722RL	22R	5630001660	R16	CHIPR_0805_WAVE	116.2	10.1	270
Resistor 0805	RC0805JR-0722RL	22R	5630001660	R17	CHIPR_0805_WAVE	85.925	19.975	270
Resistor 0805	RC0805JR-0722RL	22R	5630001660	R30	CHIPR_0805_WAVE	154.375	10.55	270
Resistor 0805	RC0805JR-0722RL	22R	5630001660	R36	CHIPR_0805_WAVE	154.375	14.45	270
Resistor 0805	RC0805JR-0722RL	22R	5630001660	R38	CHIPR_0805_WAVE	160.375	13.15	90
Resistor 0805	RC0805JR-077R5L	7.5R	5630001680	R45	CHIPR_0805_WAVE	193.275	4.425	90
Resistor 1206	RC1206FR-071R2L	1.2R	5630004100	R40	CHIPR_1206_WAVE	183.625	4.45	90
Resistor 1206	RC1206JR-070R0L	0Ohm	5630000300	R12	CHIPR_1206_WAVE	121	9.9	90
Resistor 1206	RC1206JR-070R0L	0Ohm	5630000300	R44	CHIPR_1206_WAVE	172.1	5.8	270
Resistor 1206	RC1206JR-071M5L	1.5M	5630001570	R1	CHIPR_1206_WAVE	71.475	18.75	270
Resistor 1206	RC1206JR-071M5L	1.5M	5630001570	R2	CHIPR_1206_WAVE	71.475	12.779	270
Resistor 1206	RC1206JR-071ML	1M	5630002830	R23	CHIPR_1206_WAVE	153.275	22.55	270
Resistor 1206	RC1206JR-071ML	1M	5630002830	R24	CHIPR_1206_WAVE	150.1	20.458	270
Resistor 1206	RC1206JR-071ML	1M	5630002830	R25	CHIPR_1206_WAVE	145.9	19.85	270
Resistor 1206	RC1206JR-072R2L	2.2R	5630001640	R18	CHIPR_1206_WAVE	82.125	4.4	90
Resistor 1206	RC1206JR-072R2L	2.2R	5630001640	R20	CHIPR_1206_WAVE	85.3	4.4	90
Resistor 1206	RC1206JR-072R2L	2.2R	5630001640	R21	CHIPR_1206_WAVE	88.5	4.4	90
Resistor 1206	RC1206JR-072R2L	2.2R	5630001640	R42	CHIPR_1206_WAVE	186.875	4.45	90
Resistor 1206	RC1206JR-072R2L	2.2R	5630001640	R43	CHIPR_1206_WAVE	190.125	4.45	90
Resistor 1206	RC1206JR-07560RL	560R	5630001900	R49	CHIPR_1206_WAVE	31.25	23.5	270
Resistor 1206	RC1206JR-07680KL	680K	5630001620	R33	CHIPR_1206_WAVE	157.975	22.55	270
Resistor 1206	RC1206JR-07680KL	680K	5630001620	R34	CHIPR_1206_WAVE	161.175	18.95	270
Resistor 1206	RC1206JR-07680KL	680K	5630001620	R35	CHIPR_1206_WAVE	157.575	14.05	270
Resistor 1206	RC1206JR-07680KL	680K	5630001620	R4	CHIPR_1206_WAVE	124.675	23.011	270
Resistor 1206	RC1206JR-07680KL	680K	5630001620	R5	CHIPR_1206_WAVE	127.9	20.8	270
Resistor 1206	RC1206JR-07680KL	680K	5630001620	R6	CHIPR_1206_WAVE	123.5	14.9	180
Resistor 1206	RC1206JR-07680KL	680K	5630001620	R8	CHIPR_1206_WAVE	75.3	18.6	270
Resistor 1206	RC1206JR-07680KL	680K	5630001620	R9	CHIPR_1206_WAVE	82.225	22.879	90
SMPS PFC controller	L6562ADTR	L6562ADTR	5630001500	DD1	SOIC-8_WAVE	111.4	9.1	270
Switching diode	PMLL4148L	PMLL4148L	5630001800	VD2	SOD80_WAVE	118.652	20.458	270
Switching diode	PMLL4148L	PMLL4148L	5630001800	VD3	SOD80_WAVE	121.6	20.458	90
Switching diode	PMLL4148L	PMLL4148L	5630001800	VD5	SOD80_WAVE	157.575	7.95	270
Switching diode	PMLL4148L	PMLL4148L	5630001800	VD8	SOD80_WAVE	163.075	12.65	90
Transistor bipolar	BC846	BC846	5630001740	VT1	SOT23_WAVE	125.9	10.596	0
Transistor MOSFET	R6004END	R6004END	5630001510	VT2	DPAK_WAVE 4x_stencil	88.975	13.825	180
Zener diode	ZMM18	ZMM18	5630002320	VD1	SOD80_WAVE	130	5.2	90
Zener diode	ZMM22	ZMM22	5630004280	VD6	SOD80_WAVE	151.375	13.55	270
